tb_sw_decode.vcd
$date
   Sat Jul 18 20:23:54 2020
$end
$version
  2018.2
$end
$timescale
  1ps
$end
$scope module tb_sw_decode $end
$var reg 1 ! bits_done $end
$var reg 1 " bit_value $end
$var reg 1 # next_bit $end
$var reg 1 $ clk $end
$var reg 1 % rst $end
$var reg 11 & sw [10:0] $end
$var reg 14 ' single_vector [13:0] $end
$var integer 32 ( i $end
$var integer 32 ) mm_count $end
$var parameter 32 * COLUMNS [31:0] $end
$var parameter 32 + INPUTS [31:0] $end
$var parameter 32 , ROWS [31:0] $end
$scope module uut $end
$var reg 1 ! bits_done $end
$var reg 1 " bit_value $end
$var wire 1 - next_bit $end
$var wire 11 . sw [10:0] $end
$var wire 1 / clk $end
$var wire 1 0 rst $end
$var reg 5 1 bit_count [4:0] $end
$scope module u_bd_divider $end
$var reg 1 2 tc $end
$var reg 5 1 count [4:0] $end
$var wire 1 / clk $end
$var wire 1 0 rst $end
$var wire 1 - ena $end
$var wire 5 3 init_count [4:0] $end
$var reg 5 4 next_count [4:0] $end
$var parameter 32 5 BIT_SIZE [31:0] $end
$scope begin combinational $end
$upscope $end
$upscope $end
$upscope $end
$upscope $end
$enddefinitions $end
#0
$dumpvars
0!
x"
x#
0$
1%
bx &
bx '
bx (
bx )
b1110 *
b1100 +
b1000011 ,
x-
bx .
0/
10
bx 1
02
b11111 3
b11111 4
b101 5
$end
#5000
0!
0"
1$
1/
b11111 1
02
b11111 4
#10000
0!
0"
1#
0$
0%
b11111111111 &
b11111111111100 '
b0 (
b0 )
1-
b11111111111 .
0/
00
02
b11110 4
#15000
0!
1"
1$
1/
b11110 1
02
b11101 4
#20000
0!
0"
0#
0$
b1111111111 &
b111111111100 '
b1 (
0-
b1111111111 .
0/
02
b11110 4
#25000
1$
1/
b11110 1
#30000
0!
1"
1#
0$
b10000000000 &
b11000000000001 '
b10 (
1-
b10000000000 .
0/
02
b11101 4
#35000
0!
0"
1$
1/
b11101 1
02
b11100 4
#40000
0!
0"
0#
0$
b10111111111 &
b1011111111100 '
b11 (
0-
b10111111111 .
0/
02
b11101 4
#45000
1$
1/
b11101 1
#50000
0!
1"
1#
0$
b1000000000 &
b10100000000001 '
b100 (
1-
b1000000000 .
0/
02
b11100 4
#55000
0!
0"
1$
1/
b11100 1
02
b11011 4
#60000
0!
0"
0#
0$
b11011111111 &
b1101111111100 '
b101 (
0-
b11011111111 .
0/
02
b11100 4
#65000
1$
1/
b11100 1
#70000
0!
1"
1#
0$
b100000000 &
b10010000000001 '
b110 (
1-
b100000000 .
0/
02
b11011 4
#75000
0!
0"
1$
1/
b11011 1
02
b11010 4
#80000
0!
0"
0#
0$
b11101111111 &
b1110111111100 '
b111 (
0-
b11101111111 .
0/
02
b11011 4
#85000
1$
1/
b11011 1
#90000
0!
1"
1#
0$
b10000000 &
b10001000000001 '
b1000 (
1-
b10000000 .
0/
02
b11010 4
#95000
0!
0"
1$
1/
b11010 1
02
b11001 4
#100000
0!
0"
0#
0$
b11110111111 &
b1111011111100 '
b1001 (
0-
b11110111111 .
0/
02
b11010 4
#105000
1$
1/
b11010 1
#110000
0!
1"
1#
0$
b1000000 &
b10000100000001 '
b1010 (
1-
b1000000 .
0/
02
b11001 4
#115000
0!
0"
1$
1/
b11001 1
02
b11000 4
#120000
0!
0"
0#
0$
b11111011111 &
b1111101111100 '
b1011 (
0-
b11111011111 .
0/
02
b11001 4
#125000
1$
1/
b11001 1
#130000
0!
1"
1#
0$
b100000 &
b10000010000001 '
b1100 (
1-
b100000 .
0/
02
b11000 4
#135000
0!
0"
1$
1/
b11000 1
02
b10111 4
#140000
0!
0"
0#
0$
b11111101111 &
b1111110111100 '
b1101 (
0-
b11111101111 .
0/
02
b11000 4
#145000
1$
1/
b11000 1
#150000
0!
1"
1#
0$
b10000 &
b10000001000001 '
b1110 (
1-
b10000 .
0/
02
b10111 4
#155000
0!
0"
1$
1/
b10111 1
02
b10110 4
#160000
0!
0"
0#
0$
b11111110111 &
b1111111011100 '
b1111 (
0-
b11111110111 .
0/
02
b10111 4
#165000
1$
1/
b10111 1
#170000
0!
1"
1#
0$
b1000 &
b10000000100001 '
b10000 (
1-
b1000 .
0/
02
b10110 4
#175000
0!
0"
1$
1/
b10110 1
02
b10101 4
#180000
0!
0"
0#
0$
b11111111011 &
b1111111101100 '
b10001 (
0-
b11111111011 .
0/
02
b10110 4
#185000
1$
1/
b10110 1
#190000
0!
1"
1#
0$
b100 &
b10000000010001 '
b10010 (
1-
b100 .
0/
02
b10101 4
#195000
0!
0"
1$
1/
b10101 1
02
b10100 4
#200000
0!
0"
0#
0$
b11111111101 &
b1111111110100 '
b10011 (
0-
b11111111101 .
0/
02
b10101 4
#205000
1$
1/
b10101 1
#210000
0!
1"
1#
0$
b10 &
b10000000001001 '
b10100 (
1-
b10 .
0/
02
b10100 4
#215000
0!
0"
1$
1/
b10100 1
02
b10011 4
#220000
0!
0"
0#
0$
b11111111110 &
b1111111111000 '
b10101 (
0-
b11111111110 .
0/
02
b10100 4
#225000
1$
1/
b10100 1
#230000
0!
1"
1#
0$
b1 &
b10000000000101 '
b10110 (
1-
b1 .
0/
02
b10011 4
#235000
0!
1"
1$
1/
b10011 1
02
b10010 4
#240000
0!
1"
0#
0$
b0 &
b1 '
b10111 (
0-
b0 .
0/
02
b10011 4
#245000
1$
1/
b10011 1
#250000
0!
0"
0$
b1000 &
b100000 '
b11000 (
b1000 .
0/
#255000
1$
1/
b10011 1
#260000
0!
0"
0$
b10000000 &
b1000000000 '
b11001 (
b10000000 .
0/
#265000
1$
1/
b10011 1
#270000
0!
1"
1#
0$
b10001000 &
b10001000100001 '
b11010 (
1-
b10001000 .
0/
02
b10010 4
#275000
0!
1"
1$
1/
b10010 1
02
b10001 4
#280000
0!
1"
0#
0$
b0 &
b1 '
b11011 (
0-
b0 .
0/
02
b10010 4
#285000
1$
1/
b10010 1
#290000
0!
0"
0$
b100 &
b10000 '
b11100 (
b100 .
0/
#295000
1$
1/
b10010 1
#300000
0!
0"
0$
b1000000 &
b100000000 '
b11101 (
b1000000 .
0/
#305000
1$
1/
b10010 1
#310000
0!
1"
0$
b1000100 &
b100010001 '
b11110 (
b1000100 .
0/
#315000
1$
1/
b10010 1
#320000
0!
0"
0$
b10000000000 &
b1000000000000 '
b11111 (
b10000000000 .
0/
#325000
1$
1/
b10010 1
#330000
0!
1"
0$
b10000000100 &
b1000000010001 '
b100000 (
b10000000100 .
0/
#335000
1$
1/
b10010 1
#340000
0!
1"
0$
b10001000000 &
b1000100000001 '
b100001 (
b10001000000 .
0/
#345000
1$
1/
b10010 1
#350000
0!
0"
1#
0$
b10001000100 &
b11000100010000 '
b100010 (
1-
b10001000100 .
0/
02
b10001 4
#355000
0!
1"
1$
1/
b10001 1
02
b10000 4
#360000
0!
1"
0#
0$
b0 &
b1 '
b100011 (
0-
b0 .
0/
02
b10001 4
#365000
1$
1/
b10001 1
#370000
0!
0"
0$
b10 &
b1000 '
b100100 (
b10 .
0/
#375000
1$
1/
b10001 1
#380000
0!
0"
0$
b100000 &
b10000000 '
b100101 (
b100000 .
0/
#385000
1$
1/
b10001 1
#390000
0!
1"
0$
b100010 &
b10001001 '
b100110 (
b100010 .
0/
#395000
1$
1/
b10001 1
#400000
0!
0"
0$
b1000000000 &
b100000000000 '
b100111 (
b1000000000 .
0/
#405000
1$
1/
b10001 1
#410000
0!
1"
0$
b1000000010 &
b100000001001 '
b101000 (
b1000000010 .
0/
#415000
1$
1/
b10001 1
#420000
0!
1"
0$
b1000100000 &
b100010000001 '
b101001 (
b1000100000 .
0/
#425000
1$
1/
b10001 1
#430000
0!
0"
1#
0$
b1000100010 &
b10100010001000 '
b101010 (
1-
b1000100010 .
0/
02
b10000 4
#435000
1!
1"
1$
1/
b10000 1
02
b1111 4
#440000
0!
1"
0#
0$
b0 &
b1 '
b101011 (
0-
b0 .
0/
02
b10000 4
#445000
1$
1/
b10000 1
#450000
0!
0"
0$
b1 &
b100 '
b101100 (
b1 .
0/
#455000
1$
1/
b10000 1
#460000
0!
0"
0$
b10000 &
b1000000 '
b101101 (
b10000 .
0/
#465000
1$
1/
b10000 1
#470000
0!
1"
0$
b10001 &
b1000101 '
b101110 (
b10001 .
0/
#475000
1$
1/
b10000 1
#480000
0!
0"
0$
b100000000 &
b10000000000 '
b101111 (
b100000000 .
0/
#485000
1$
1/
b10000 1
#490000
0!
1"
0$
b100000001 &
b10000000101 '
b110000 (
b100000001 .
0/
#495000
1$
1/
b10000 1
#500000
0!
1"
0$
b100010000 &
b10001000001 '
b110001 (
b100010000 .
0/
#505000
1$
1/
b10000 1
#510000
1!
0"
1#
0$
b100010001 &
b10010001000110 '
b110010 (
1-
b100010001 .
0/
02
b1111 4
#515000
0!
1"
1$
1/
b1111 1
02
b1110 4
#520000
0!
1"
0$
b0 &
b10000000000001 '
b110011 (
b0 .
0/
#525000
0!
0"
1$
1/
b1110 1
02
b1101 4
#530000
0!
1"
0$
b10000000000 &
b11000000000001 '
b110100 (
b10000000000 .
0/
#535000
0!
0"
1$
1/
b1101 1
02
b1100 4
#540000
0!
1"
0$
b1000000000 &
b10100000000001 '
b110101 (
b1000000000 .
0/
#545000
0!
0"
1$
1/
b1100 1
02
b1011 4
#550000
0!
1"
0$
b100000000 &
b10010000000001 '
b110110 (
b100000000 .
0/
#555000
0!
0"
1$
1/
b1011 1
02
b1010 4
#560000
0!
1"
0$
b10000000 &
b10001000000001 '
b110111 (
b10000000 .
0/
#565000
0!
0"
1$
1/
b1010 1
02
b1001 4
#570000
0!
1"
0$
b1000000 &
b10000100000001 '
b111000 (
b1000000 .
0/
#575000
0!
0"
1$
1/
b1001 1
02
b1000 4
#580000
0!
1"
0$
b100000 &
b10000010000001 '
b111001 (
b100000 .
0/
#585000
0!
0"
1$
1/
b1000 1
02
b111 4
#590000
0!
1"
0$
b10000 &
b10000001000001 '
b111010 (
b10000 .
0/
#595000
0!
0"
1$
1/
b111 1
02
b110 4
#600000
0!
1"
0$
b1000 &
b10000000100001 '
b111011 (
b1000 .
0/
#605000
0!
0"
1$
1/
b110 1
02
b101 4
#610000
0!
1"
0$
b100 &
b10000000010001 '
b111100 (
b100 .
0/
#615000
0!
0"
1$
1/
b101 1
02
b100 4
#620000
0!
1"
0$
b10 &
b10000000001001 '
b111101 (
b10 .
0/
#625000
0!
0"
1$
1/
b100 1
02
b11 4
#630000
0!
1"
0$
b1 &
b10000000000101 '
b111110 (
b1 .
0/
#635000
0!
0"
1$
1/
b11 1
02
b10 4
#640000
0!
0"
0#
0$
b0 &
b0 '
b111111 (
0-
b0 .
0/
02
b11 4
#645000
1$
1/
b11 1
#650000
0!
1"
0$
b1000 &
b100001 '
b1000000 (
b1000 .
0/
#655000
1$
1/
b11 1
#660000
0!
1"
0$
b10000000 &
b1000000001 '
b1000001 (
b10000000 .
0/
#665000
1$
1/
b11 1
#670000
0!
0"
1#
0$
b10001000 &
b10001000100000 '
b1000010 (
1-
b10001000 .
0/
02
b10 4
#675000
0!
1"
1$
1/
b10 1
02
b1 4
#680000
0$
b1000011 (
0/
